<?xml version="1.0" encoding="UTF-8" standalone="no"?>
<svg
   xmlns:dc="http://purl.org/dc/elements/1.1/"
   xmlns:cc="http://creativecommons.org/ns#"
   xmlns:rdf="http://www.w3.org/1999/02/22-rdf-syntax-ns#"
   xmlns:svg="http://www.w3.org/2000/svg"
   xmlns="http://www.w3.org/2000/svg"
   xmlns:xlink="http://www.w3.org/1999/xlink"
   xmlns:sodipodi="http://sodipodi.sourceforge.net/DTD/sodipodi-0.dtd"
   xmlns:inkscape="http://www.inkscape.org/namespaces/inkscape"
   inkscape:export-ydpi="96"
   inkscape:export-xdpi="96"
   inkscape:export-filename="./button-yl-up.png"
   sodipodi:docname="button-yl.svg"
   inkscape:version="1.0 (4035a4f, 2020-05-01)"
   id="svg888"
   version="1.1"
   viewBox="0 0 132.29167 132.29167"
   height="500"
   width="500">
  <defs
     id="defs882">
    <linearGradient
       id="linearGradient1805"
       inkscape:collect="always">
      <stop
         id="stop1801"
         offset="0"
         style="stop-color:#ffffff;stop-opacity:1" />
      <stop
         style="stop-color:#ffffff;stop-opacity:0"
         offset="0.3125"
         id="stop1811" />
      <stop
         id="stop1803"
         offset="1"
         style="stop-color:#ffffff;stop-opacity:0" />
    </linearGradient>
    <filter
       height="1.0001944"
       y="-9.7200003e-05"
       width="1.0001944"
       x="-9.7200003e-05"
       id="filter1767"
       style="color-interpolation-filters:sRGB"
       inkscape:collect="always">
      <feGaussianBlur
         id="feGaussianBlur1769"
         stdDeviation="0.0042862499"
         inkscape:collect="always" />
    </filter>
    <linearGradient
       gradientTransform="matrix(0.26458333,0,0,-0.26458333,0,132.29166)"
       gradientUnits="userSpaceOnUse"
       y2="50"
       x2="250"
       y1="450"
       x1="250"
       id="linearGradient1799"
       xlink:href="#linearGradient1805"
       inkscape:collect="always" />
    <filter
       inkscape:collect="always"
       style="color-interpolation-filters:sRGB"
       id="filter1809"
       x="-0.00012"
       width="1.00024"
       y="-0.00011999999"
       height="1.00024">
      <feGaussianBlur
         inkscape:collect="always"
         stdDeviation="0.0052916667"
         id="feGaussianBlur1807" />
    </filter>
    <linearGradient
       gradientTransform="matrix(0.26458333,0,0,-0.26458333,0,125.67708)"
       y2="50"
       x2="250"
       y1="450"
       x1="250"
       gradientUnits="userSpaceOnUse"
       id="linearGradient1846"
       xlink:href="#linearGradient1805"
       inkscape:collect="always" />
    <filter
       inkscape:collect="always"
       style="color-interpolation-filters:sRGB"
       id="filter926"
       x="-1.08e-05"
       width="1.0000216"
       y="-1.08e-05"
       height="1.0000216">
      <feGaussianBlur
         inkscape:collect="always"
         stdDeviation="0.0005000625"
         id="feGaussianBlur928" />
    </filter>
    <linearGradient
       y2="50"
       x2="250"
       y1="450"
       x1="250"
       gradientTransform="matrix(0.26458333,0,0,0.26458333,0,-6.6145794)"
       gradientUnits="userSpaceOnUse"
       id="linearGradient990"
       xlink:href="#linearGradient1805"
       inkscape:collect="always" />
    <linearGradient
       y2="50"
       x2="250"
       y1="450"
       x1="250"
       gradientTransform="matrix(0.26458333,0,0,0.26458333,0,-3.7787769e-6)"
       gradientUnits="userSpaceOnUse"
       id="linearGradient996"
       xlink:href="#linearGradient1805"
       inkscape:collect="always" />
    <filter
       height="1.096"
       y="-0.048"
       width="1.096"
       x="-0.048"
       id="filter1050"
       style="color-interpolation-filters:sRGB"
       inkscape:collect="always">
      <feGaussianBlur
         id="feGaussianBlur1052"
         stdDeviation="2.2225"
         inkscape:collect="always" />
    </filter>
    <filter
       height="1.0938181"
       y="-0.046909042"
       width="1.0982858"
       x="-0.049142911"
       id="filter1060"
       style="color-interpolation-filters:sRGB"
       inkscape:collect="always">
      <feGaussianBlur
         id="feGaussianBlur1062"
         stdDeviation="2.274977"
         inkscape:collect="always" />
    </filter>
  </defs>
  <sodipodi:namedview
     objecttolerance="20"
     showguides="false"
     inkscape:window-maximized="0"
     inkscape:window-y="23"
     inkscape:window-x="0"
     inkscape:window-height="755"
     inkscape:window-width="1240"
     inkscape:showpageshadow="false"
     borderlayer="false"
     showborder="true"
     inkscape:pagecheckerboard="false"
     units="px"
     showgrid="true"
     inkscape:document-rotation="0"
     inkscape:current-layer="g1773"
     inkscape:document-units="mm"
     inkscape:cy="250"
     inkscape:cx="250"
     inkscape:zoom="1.094"
     inkscape:pageshadow="2"
     inkscape:pageopacity="0.0"
     borderopacity="1.0"
     bordercolor="#666666"
     pagecolor="#ffffff"
     id="base">
    <inkscape:grid
       snapvisiblegridlinesonly="true"
       dotted="false"
       empspacing="25"
       id="grid1451"
       type="xygrid" />
  </sodipodi:namedview>
  <metadata
     id="metadata885">
    <rdf:RDF>
      <cc:Work
         rdf:about="">
        <dc:format>image/svg+xml</dc:format>
        <dc:type
           rdf:resource="http://purl.org/dc/dcmitype/StillImage" />
        <dc:title />
      </cc:Work>
    </rdf:RDF>
  </metadata>
  <g
     sodipodi:insensitive="true"
     inkscape:groupmode="layer"
     id="g1000"
     inkscape:label="2 - outer shadow"
     style="display:inline;opacity:0.3;filter:url(#filter1050)">
    <circle
       r="55.5625"
       cy="69.320839"
       cx="66.145836"
       id="circle998"
       style="fill:#000000;fill-opacity:1;stroke:none;stroke-width:9.07334;stroke-linejoin:round;stroke-opacity:1;paint-order:markers fill stroke" />
  </g>
  <g
     sodipodi:insensitive="true"
     style="display:inline;opacity:0.998;filter:url(#filter926)"
     inkscape:label="2 - outer stroke"
     id="layer3"
     inkscape:groupmode="layer">
    <circle
       style="fill:#000000;fill-opacity:1;stroke:none;stroke-width:9.07334;stroke-linejoin:round;stroke-opacity:1;paint-order:markers fill stroke"
       id="path916"
       cx="66.145836"
       cy="66.145836"
       r="55.5625" />
  </g>
  <g
     style="display:inline"
     inkscape:label="2 - outer chunk"
     id="layer4"
     inkscape:groupmode="layer"
     sodipodi:insensitive="true">
    <circle
       transform="matrix(0.26458333,0,0,0.26458333,11.91679,11.895699)"
       cy="205"
       cx="205"
       id="circle1834-2"
       style="display:inline;opacity:0.998;mix-blend-mode:normal;fill:#bd8f32;fill-opacity:1;stroke:none;stroke-width:20.5;stroke-linecap:round;stroke-linejoin:round;paint-order:fill markers stroke;filter:url(#filter1767)"
       r="205" />
  </g>
  <g
     style="display:inline;mix-blend-mode:normal;filter:url(#filter1767)"
     id="g1765"
     inkscape:groupmode="layer"
     inkscape:label="2 - outer"
     sodipodi:insensitive="true">
    <circle
       r="52.916664"
       cy="66.145836"
       cx="66.145836"
       id="circle1763"
       style="fill:#f8d649;fill-opacity:1;stroke:none;stroke-width:5.29167;stroke-linecap:round;stroke-linejoin:round;paint-order:fill markers stroke" />
  </g>
  <g
     sodipodi:insensitive="true"
     inkscape:label="2 - specular"
     inkscape:groupmode="layer"
     id="g1773"
     style="display:inline;opacity:0.997;mix-blend-mode:normal;filter:url(#filter1809)">
    <path
       d="M 66.09054,119.06249 A 52.916663,52.916663 0 0 1 13.229167,66.145825 52.916663,52.916663 0 0 1 66.145832,13.229159 52.916663,52.916663 0 0 1 119.0625,66.145825 52.916663,52.916663 0 0 1 66.145832,119.06249 a 52.916663,52.916663 0 0 1 -0.05529,0 z m 0.05529,-1.32912 A 51.587677,51.5876 0 0 0 117.73338,66.145825 51.587677,51.5876 0 0 0 66.145832,14.558278 51.587677,51.5876 0 0 0 14.558284,66.145825 51.587677,51.5876 0 0 0 66.145832,117.73337 Z"
       style="fill:url(#linearGradient1799);fill-opacity:1;stroke:none;stroke-width:5.29167;stroke-linecap:round;stroke-linejoin:round;paint-order:fill markers stroke"
       id="circle1771" />
  </g>
  <g
     sodipodi:insensitive="true"
     style="display:inline;opacity:0.5;mix-blend-mode:normal;filter:url(#filter1809)"
     id="g994"
     inkscape:groupmode="layer"
     inkscape:label="2 - specular bottom">
    <path
       id="path992"
       style="fill:url(#linearGradient996);fill-opacity:1;stroke:none;stroke-width:5.29167;stroke-linecap:round;stroke-linejoin:round;paint-order:fill markers stroke"
       d="M 66.09054,13.229166 A 52.916663,52.916663 0 0 0 13.229167,66.145831 52.916663,52.916663 0 0 0 66.145832,119.0625 52.916663,52.916663 0 0 0 119.0625,66.145831 52.916663,52.916663 0 0 0 66.145832,13.229166 a 52.916663,52.916663 0 0 0 -0.05529,0 z m 0.05529,1.32912 A 51.587677,51.5876 0 0 1 117.73338,66.145831 51.587677,51.5876 0 0 1 66.145832,117.73338 51.587677,51.5876 0 0 1 14.558284,66.145831 51.587677,51.5876 0 0 1 66.145832,14.558286 Z" />
  </g>
  <g
     sodipodi:insensitive="true"
     style="display:none;opacity:0.3;filter:url(#filter1060)"
     inkscape:groupmode="layer"
     id="g1056"
     inkscape:label="3 - outer stroke shadow">
    <path
       transform="matrix(0.27103556,0,0,0.27073358,-2.9682326,-4.2447673)"
       d="M 254.82031,45.039062 A 199.96112,199.96338 0 0 0 57.009766,217.00391 204.96015,204.96247 0 0 0 50.039062,269.99805 204.96015,204.96247 0 0 0 255,474.96094 204.96015,204.96247 0 0 0 459.96094,269.99805 204.96015,204.96247 0 0 0 452.99023,217.00391 199.96112,199.96338 0 0 0 255,45.039062 a 199.96112,199.96338 0 0 0 -0.17969,0 z"
       style="display:inline;mix-blend-mode:normal;fill:#000000;fill-opacity:1;stroke:none;stroke-width:20.4961;stroke-linecap:round;stroke-linejoin:round;paint-order:fill markers stroke;filter:url(#filter1767)"
       id="path1054" />
  </g>
  <g
     inkscape:label="3 - outer stroke"
     id="layer5"
     inkscape:groupmode="layer"
     style="display:none"
     sodipodi:insensitive="true">
    <path
       id="circle1834-3"
       style="display:inline;mix-blend-mode:normal;fill:#000000;fill-opacity:1;stroke:none;stroke-width:20.4961;stroke-linecap:round;stroke-linejoin:round;paint-order:fill markers stroke;filter:url(#filter1767)"
       d="M 254.82031,45.039062 A 199.96112,199.96338 0 0 0 57.009766,217.00391 204.96015,204.96247 0 0 0 50.039062,269.99805 204.96015,204.96247 0 0 0 255,474.96094 204.96015,204.96247 0 0 0 459.96094,269.99805 204.96015,204.96247 0 0 0 452.99023,217.00391 199.96112,199.96338 0 0 0 255,45.039062 a 199.96112,199.96338 0 0 0 -0.17969,0 z"
       transform="matrix(0.27103556,0,0,0.27073358,-2.9682326,-6.8906008)" />
  </g>
  <g
     inkscape:label="3 - outer chunk"
     inkscape:groupmode="layer"
     id="g1836"
     style="display:none;mix-blend-mode:normal;filter:url(#filter1767)"
     sodipodi:insensitive="true">
    <circle
       r="54.239582"
       style="fill:#bd8f32;fill-opacity:1;stroke:none;stroke-width:5.42396;stroke-linecap:round;stroke-linejoin:round;paint-order:fill markers stroke"
       id="circle1834"
       cx="66.145828"
       cy="66.145828" />
  </g>
  <g
     style="display:none;mix-blend-mode:normal;filter:url(#filter1767)"
     id="g1844"
     inkscape:groupmode="layer"
     inkscape:label="3 - outer"
     sodipodi:insensitive="true">
    <circle
       r="52.916664"
       cy="59.531246"
       cx="66.145836"
       id="circle1842"
       style="fill:#f8d649;fill-opacity:1;stroke:none;stroke-width:5.29167;stroke-linecap:round;stroke-linejoin:round;paint-order:fill markers stroke" />
  </g>
  <g
     sodipodi:insensitive="true"
     style="display:none;opacity:0.997;mix-blend-mode:normal;filter:url(#filter1809)"
     id="g1832"
     inkscape:groupmode="layer"
     inkscape:label="3 - specular">
    <path
       id="path1830"
       style="fill:url(#linearGradient1846);fill-opacity:1;stroke:none;stroke-width:5.29167;stroke-linecap:round;stroke-linejoin:round;paint-order:fill markers stroke"
       d="M 66.09054,112.44791 A 52.916663,52.916663 0 0 1 13.229167,59.531247 52.916663,52.916663 0 0 1 66.145832,6.6145834 52.916663,52.916663 0 0 1 119.0625,59.531247 52.916663,52.916663 0 0 1 66.145832,112.44791 a 52.916663,52.916663 0 0 1 -0.05529,0 z m 0.05529,-1.32912 A 51.587677,51.5876 0 0 0 117.73338,59.531247 51.587677,51.5876 0 0 0 66.145832,7.9437034 51.587677,51.5876 0 0 0 14.558284,59.531247 51.587677,51.5876 0 0 0 66.145832,111.11879 Z" />
  </g>
  <g
     sodipodi:insensitive="true"
     inkscape:label="3 - specular bottom"
     inkscape:groupmode="layer"
     id="g988"
     style="display:none;opacity:0.5;mix-blend-mode:normal;filter:url(#filter1809)">
    <path
       d="M 66.09054,6.6145906 A 52.916663,52.916663 0 0 0 13.229167,59.531254 52.916663,52.916663 0 0 0 66.145832,112.44792 52.916663,52.916663 0 0 0 119.0625,59.531254 52.916663,52.916663 0 0 0 66.145832,6.6145906 a 52.916663,52.916663 0 0 0 -0.05529,0 z m 0.05529,1.32912 A 51.587677,51.5876 0 0 1 117.73338,59.531254 51.587677,51.5876 0 0 1 66.145832,111.1188 51.587677,51.5876 0 0 1 14.558284,59.531254 51.587677,51.5876 0 0 1 66.145832,7.9437106 Z"
       style="fill:url(#linearGradient990);fill-opacity:1;stroke:none;stroke-width:5.29167;stroke-linecap:round;stroke-linejoin:round;paint-order:fill markers stroke"
       id="path986" />
  </g>
</svg>
